\relax 
\providecommand\hyper@newdestlabel[2]{}
\citation{Softwareentwicklungsvertrag}
\citation{EVBIT}
\citation{EVBIT}
\citation{EvbitAktuell}
\@writefile{toc}{\contentsline {chapter}{\numberline {3}Aspekte eines Erstellungsvertrages f\IeC {\"u}r Individualsoftware}{7}{chapter.3}}
\@writefile{lof}{\addvspace {10\p@ }}
\@writefile{lot}{\addvspace {10\p@ }}
\@writefile{lol}{\addvspace {10\p@ }}
\@writefile{loa}{\addvspace {10\p@ }}
\newlabel{Aspekte_Vertrag_Individualsoftware}{{3}{7}{Aspekte eines Erstellungsvertrages für Individualsoftware}{chapter.3}{}}
\@writefile{toc}{\contentsline {section}{\numberline {3.1}Vertragsgegenstand}{7}{section.3.1}}
\newlabel{Vertragsgegenstand}{{3.1}{7}{Vertragsgegenstand}{section.3.1}{}}
\@writefile{toc}{\contentsline {subsection}{\numberline {3.1.1}EVB-IT und BVB}{7}{subsection.3.1.1}}
\newlabel{EVB-IT und BVB}{{3.1.1}{7}{EVB-IT und BVB}{subsection.3.1.1}{}}
\citation{EvbitEntscheidung}
\citation{EvbitAGB}
\citation{BVBPlanung}
\citation{BVBPlanung}
\@writefile{toc}{\contentsline {subsection}{\numberline {3.1.2}Leistungsbeschreibung}{9}{subsection.3.1.2}}
\newlabel{Leistungsbeschreibung}{{3.1.2}{9}{Leistungsbeschreibung}{subsection.3.1.2}{}}
\citation{SoftwareNutzungsrechte}
\@writefile{toc}{\contentsline {section}{\numberline {3.2}Nutzungsrechte}{11}{section.3.2}}
\newlabel{Nutzungsrechte}{{3.2}{11}{Nutzungsrechte}{section.3.2}{}}
\@setckpt{kapitel/kapitel3}{
\setcounter{page}{12}
\setcounter{equation}{0}
\setcounter{enumi}{0}
\setcounter{enumii}{0}
\setcounter{enumiii}{0}
\setcounter{enumiv}{0}
\setcounter{footnote}{4}
\setcounter{mpfootnote}{0}
\setcounter{part}{0}
\setcounter{chapter}{3}
\setcounter{section}{2}
\setcounter{subsection}{0}
\setcounter{subsubsection}{0}
\setcounter{paragraph}{0}
\setcounter{subparagraph}{0}
\setcounter{figure}{0}
\setcounter{table}{0}
\setcounter{float@type}{16}
\setcounter{Item}{0}
\setcounter{Hfootnote}{8}
\setcounter{bookmark@seq@number}{14}
\setcounter{AM@survey}{0}
\setcounter{parentequation}{0}
\setcounter{subfigure}{0}
\setcounter{lofdepth}{1}
\setcounter{subtable}{0}
\setcounter{lotdepth}{1}
\setcounter{NAT@ctr}{0}
\setcounter{ContinuedFloat}{0}
\setcounter{lstnumber}{1}
\setcounter{algorithm}{0}
\setcounter{ALC@unique}{0}
\setcounter{ALC@line}{0}
\setcounter{ALC@rem}{0}
\setcounter{ALC@depth}{0}
\setcounter{@todonotes@numberoftodonotes}{0}
\setcounter{blindtext}{1}
\setcounter{Blindtext}{5}
\setcounter{blind@countparstart}{0}
\setcounter{blindlist}{0}
\setcounter{blindlistlevel}{0}
\setcounter{blindlist@level}{0}
\setcounter{blind@listcount}{0}
\setcounter{blind@levelcount}{0}
\setcounter{blind@randomcount}{0}
\setcounter{blind@randommax}{0}
\setcounter{blind@pangramcount}{0}
\setcounter{blind@pangrammax}{0}
\setcounter{section@level}{1}
\setcounter{lstlisting}{0}
}
