\relax 
\providecommand\hyper@newdestlabel[2]{}
\citation{ISO24765}
\citation{jurpc}
\citation{ITRechtsInfoIndividualsoftware}
\@writefile{toc}{\contentsline {chapter}{\numberline {2}Grundlagen}{3}{chapter.2}}
\@writefile{lof}{\addvspace {10\p@ }}
\@writefile{lot}{\addvspace {10\p@ }}
\@writefile{lol}{\addvspace {10\p@ }}
\@writefile{loa}{\addvspace {10\p@ }}
\newlabel{Grundlagen}{{2}{3}{Grundlagen}{chapter.2}{}}
\@writefile{toc}{\contentsline {section}{\numberline {2.1}Definition von Software}{3}{section.2.1}}
\newlabel{Definition_von_Software}{{2.1}{3}{Definition von Software}{section.2.1}{}}
\@writefile{toc}{\contentsline {section}{\numberline {2.2}Abgrenzung von Individual- und Standardsoftware}{3}{section.2.2}}
\newlabel{Abgrenzung_Indiv_Standardsoftware}{{2.2}{3}{Abgrenzung von Individual- und Standardsoftware}{section.2.2}{}}
\@writefile{toc}{\contentsline {section}{\numberline {2.3}Vertragsarten}{4}{section.2.3}}
\newlabel{Vertragsarten}{{2.3}{4}{Vertragsarten}{section.2.3}{}}
\@writefile{toc}{\contentsline {subsection}{\numberline {2.3.1}Kaufvertrag}{4}{subsection.2.3.1}}
\newlabel{Kaufvertrag}{{2.3.1}{4}{Kaufvertrag}{subsection.2.3.1}{}}
\@writefile{toc}{\contentsline {subsection}{\numberline {2.3.2}Werkvertrag}{5}{subsection.2.3.2}}
\newlabel{Werkvertrag}{{2.3.2}{5}{Werkvertrag}{subsection.2.3.2}{}}
\@setckpt{kapitel/kapitel2}{
\setcounter{page}{7}
\setcounter{equation}{0}
\setcounter{enumi}{0}
\setcounter{enumii}{0}
\setcounter{enumiii}{0}
\setcounter{enumiv}{0}
\setcounter{footnote}{4}
\setcounter{mpfootnote}{0}
\setcounter{part}{0}
\setcounter{chapter}{2}
\setcounter{section}{3}
\setcounter{subsection}{2}
\setcounter{subsubsection}{0}
\setcounter{paragraph}{0}
\setcounter{subparagraph}{0}
\setcounter{figure}{0}
\setcounter{table}{0}
\setcounter{float@type}{16}
\setcounter{Item}{0}
\setcounter{Hfootnote}{4}
\setcounter{bookmark@seq@number}{9}
\setcounter{AM@survey}{0}
\setcounter{parentequation}{0}
\setcounter{subfigure}{0}
\setcounter{lofdepth}{1}
\setcounter{subtable}{0}
\setcounter{lotdepth}{1}
\setcounter{NAT@ctr}{0}
\setcounter{ContinuedFloat}{0}
\setcounter{lstnumber}{1}
\setcounter{algorithm}{0}
\setcounter{ALC@unique}{0}
\setcounter{ALC@line}{0}
\setcounter{ALC@rem}{0}
\setcounter{ALC@depth}{0}
\setcounter{@todonotes@numberoftodonotes}{0}
\setcounter{blindtext}{1}
\setcounter{Blindtext}{5}
\setcounter{blind@countparstart}{0}
\setcounter{blindlist}{0}
\setcounter{blindlistlevel}{0}
\setcounter{blindlist@level}{0}
\setcounter{blind@listcount}{0}
\setcounter{blind@levelcount}{0}
\setcounter{blind@randomcount}{0}
\setcounter{blind@randommax}{0}
\setcounter{blind@pangramcount}{0}
\setcounter{blind@pangrammax}{0}
\setcounter{section@level}{2}
\setcounter{lstlisting}{0}
}
