\relax 
\providecommand\hyper@newdestlabel[2]{}
\citation{Wikipedia}
\citation{Wikipedia}
\citation{ITIL}
\citation{Wikipedia}
\citation{Wikipedia,Braincourt}
\@writefile{toc}{\contentsline {chapter}{\numberline {4}Change-Request-Verfahren}{12}{chapter.4}}
\@writefile{lof}{\addvspace {10\p@ }}
\@writefile{lot}{\addvspace {10\p@ }}
\@writefile{lol}{\addvspace {10\p@ }}
\@writefile{loa}{\addvspace {10\p@ }}
\newlabel{Change_Request_Verfahren}{{4}{12}{Change-Request-Verfahren}{chapter.4}{}}
\@writefile{toc}{\contentsline {section}{\numberline {4.1}Grundlagen}{12}{section.4.1}}
\newlabel{CR_Grundlagen}{{4.1}{12}{Grundlagen}{section.4.1}{}}
\citation{Braincourt}
\citation{Braincourt}
\citation{Stoltenhoff}
\citation{Braincourt}
\citation{Braincourt}
\citation{Braincourt}
\citation{Braincourt}
\citation{Braincourt}
\citation{Braincourt}
\citation{Braincourt}
\citation{Braincourt}
\citation{Braincourt}
\citation{Wikipedia}
\citation{Wikipedia}
\citation{CompactSpezialITRecht}
\citation{CompactSpezialITRecht,Praxishandbuch_IT-Projekte}
\citation{CompactSpezialITRecht}
\citation{CompactSpezialITRecht,Stoltenhoff}
\citation{Stoltenhoff}
\citation{Stoltenhoff}
\citation{Praxishandbuch_IT-Projekte}
\citation{Praxishandbuch_IT-Projekte}
\citation{Praxishandbuch_IT-Projekte}
\citation{Praxishandbuch_IT-Projekte}
\@writefile{toc}{\contentsline {section}{\numberline {4.2}Bedeutung}{14}{section.4.2}}
\newlabel{Bedeutung}{{4.2}{14}{Bedeutung}{section.4.2}{}}
\citation{Bitkom}
\@writefile{toc}{\contentsline {section}{\numberline {4.3}Rechtliche Verankerung des Change-Requests}{15}{section.4.3}}
\newlabel{Rechtliche_Verankerung}{{4.3}{15}{Rechtliche Verankerung des Change-Requests}{section.4.3}{}}
\@writefile{toc}{\contentsline {subsection}{\numberline {4.3.1}Entwurf einer Vertragsklausel}{15}{subsection.4.3.1}}
\newlabel{Vertragsklausel}{{4.3.1}{15}{Entwurf einer Vertragsklausel}{subsection.4.3.1}{}}
\citation{Bundesministerium}
\citation{Bundesministerium}
\@writefile{toc}{\contentsline {subsection}{\numberline {4.3.2}Erl\IeC {\"a}uterung der Vertragsklausel}{17}{subsection.4.3.2}}
\newlabel{Vertragsklausel_Erl\IeC {\"a}uterung}{{4.3.2}{17}{Erläuterung der Vertragsklausel}{subsection.4.3.2}{}}
\citation{Leistungsaenderungen}
\citation{Leistungsaenderungen}
\@setckpt{kapitel/kapitel4}{
\setcounter{page}{20}
\setcounter{equation}{0}
\setcounter{enumi}{6}
\setcounter{enumii}{3}
\setcounter{enumiii}{2}
\setcounter{enumiv}{0}
\setcounter{footnote}{12}
\setcounter{mpfootnote}{0}
\setcounter{part}{0}
\setcounter{chapter}{4}
\setcounter{section}{3}
\setcounter{subsection}{2}
\setcounter{subsubsection}{0}
\setcounter{paragraph}{0}
\setcounter{subparagraph}{0}
\setcounter{figure}{0}
\setcounter{table}{0}
\setcounter{float@type}{16}
\setcounter{Item}{11}
\setcounter{Hfootnote}{20}
\setcounter{bookmark@seq@number}{20}
\setcounter{AM@survey}{0}
\setcounter{parentequation}{0}
\setcounter{subfigure}{0}
\setcounter{lofdepth}{1}
\setcounter{subtable}{0}
\setcounter{lotdepth}{1}
\setcounter{NAT@ctr}{0}
\setcounter{ContinuedFloat}{0}
\setcounter{lstnumber}{1}
\setcounter{algorithm}{0}
\setcounter{ALC@unique}{0}
\setcounter{ALC@line}{0}
\setcounter{ALC@rem}{0}
\setcounter{ALC@depth}{0}
\setcounter{@todonotes@numberoftodonotes}{0}
\setcounter{blindtext}{1}
\setcounter{Blindtext}{5}
\setcounter{blind@countparstart}{0}
\setcounter{blindlist}{0}
\setcounter{blindlistlevel}{0}
\setcounter{blindlist@level}{0}
\setcounter{blind@listcount}{0}
\setcounter{blind@levelcount}{0}
\setcounter{blind@randomcount}{0}
\setcounter{blind@randommax}{0}
\setcounter{blind@pangramcount}{0}
\setcounter{blind@pangrammax}{0}
\setcounter{section@level}{2}
\setcounter{lstlisting}{0}
}
